exercise-21-csu
…
Description:

I see there is a defined pattern of high stream flow in May and June. Stream Flow is noticeably low from November to February. This makes sense as Colorado gets a lot of rain during the spring months including snow melt. This increase in precipitation increases stream discharge which will cause these spikes in data. Comparatively, the patterns of low stream flow can be explained by the periods of snow precipitation.

Decompose

poudre_decompose<-poudre_tsibble%>%
  model(STL(Flow ~ season(window="periodic")))%>%
  components()
poudre_decompose

# A dable: 132 x 7 [1M]
# Key:     .model [1]
# :        Flow = trend + season_year + remainder
   .model                  Date   Flow trend season_year remainder season_adjust
   <chr>                  <mth>  <dbl> <dbl>       <dbl>     <dbl>         <dbl>
 1 "STL(Flow ~ season… 2013 Jan 1.81e1  13.0      -173.      179.           192.
 2 "STL(Flow ~ season… 2013 Feb 1.80e1  42.0      -176.      152.           194.
 3 "STL(Flow ~ season… 2013 Mar 8.21e0  70.9      -178.      115.           186.
 4 "STL(Flow ~ season… 2013 Apr 5.94e0 101.       -121.       26.5          127.
 5 "STL(Flow ~ season… 2013 May 3.33e2 131.        641.     -439.          -308.
 6 "STL(Flow ~ season… 2013 Jun 3.00e2 157.        778.     -636.          -478.
 7 "STL(Flow ~ season… 2013 Jul 7.56e1 184.        -57.4     -51.2          133.
 8 "STL(Flow ~ season… 2013 Aug 4.88e1 208.       -114.      -45.8          162.
 9 "STL(Flow ~ season… 2013 Sep 1.09e3 232.        -74.3     927.          1160.
10 "STL(Flow ~ season… 2013 Oct 1.46e2 276.       -150.       19.3          296.
# ℹ 122 more rows
…
